{
  "id": "5f9d6b61-3bd4-4c8a-978c-4314829450f0",
  "message": "Dies ist eine Test-Nachricht (FOSS DE BETA).",
  "primaryLink": "https://github.com/d4rken-org/sdmaid-se",
  "versionMinimum": 1100001
}